Lab 3
…
c. White men above age of 30

hip_hop |> 
  filter(sex == 'Male'& ethnic_w == 'white' & age > 30) |> 
  group_by(word) |> 
  summarise(mean_familiarity = mean(familiarity)) |> 
  filter(
    mean_familiarity == max(mean_familiarity)| 
    mean_familiarity == min(mean_familiarity)
           )

# A tibble: 26 × 2
   word              mean_familiarity
   <chr>                        <dbl>
 1 5-0                            4.2
 2 ay yo trip                     1  
 3 beezy                          1  
 4 break someone out              1  
 5 catch the vapors               1  
 6 crossroads                     1  
 7 crump                          1  
 8 dap                            1  
 9 dollar cab                     1  
10 domino                         1  
# … with 16 more rows
…
